…
  df
}

study_data = map_dfr(list.files(path = "./data"), load_study_data)
```

``` r
study_data
```

    ## # A tibble: 160 x 4
    ##    participant_id arm_type week  observed_data
    ##    <chr>          <chr>    <chr>         <dbl>
    ##  1 con_01         control  1              0.2 
    ##  2 con_01         control  2             -1.31
    ##  3 con_01         control  3              0.66
    ##  4 con_01         control  4              1.96
    ##  5 con_01         control  5              0.23
    ##  6 con_01         control  6              1.09
    ##  7 con_01         control  7              0.05
    ##  8 con_01         control  8              1.94
    ##  9 con_02         control  1              1.13
    ## 10 con_02         control  2             -0.88
    ## # ... with 150 more rows
…
Question 2
----------

### Importing and cleaning dataset

``` r
url_base = "https://raw.githubusercontent.com/washingtonpost/data-homicides/master/homicide-data.csv" 

homocide_data_raw = read_csv(url_base)

homocide_data_raw
```

    ## # A tibble: 52,179 x 12
    ##    uid   reported_date victim_last victim_first victim_race victim_age
    ##    <chr>         <int> <chr>       <chr>        <chr>       <chr>     
    ##  1 Alb-…      20100504 GARCIA      JUAN         Hispanic    78        
    ##  2 Alb-…      20100216 MONTOYA     CAMERON      Hispanic    17        
    ##  3 Alb-…      20100601 SATTERFIELD VIVIANA      White       15        
    ##  4 Alb-…      20100101 MENDIOLA    CARLOS       Hispanic    32        
    ##  5 Alb-…      20100102 MULA        VIVIAN       White       72        
    ##  6 Alb-…      20100126 BOOK        GERALDINE    White       91        
    ##  7 Alb-…      20100127 MALDONADO   DAVID        Hispanic    52        
    ##  8 Alb-…      20100127 MALDONADO   CONNIE       Hispanic    52        
    ##  9 Alb-…      20100130 MARTIN-LEY… GUSTAVO      White       56        
    ## 10 Alb-…      20100210 HERRERA     ISRAEL       Hispanic    43        
    ## # ... with 52,169 more rows, and 6 more variables: victim_sex <chr>,
    ## #   city <chr>, state <chr>, lat <dbl>, lon <dbl>, disposition <chr>
…
### Number of homocides and unsolved homocides for each city

-   Total number of homocides by city

``` r
homocide_data %>% 
  filter(disposition == "Closed by arrest") %>% 
  group_by(city_state) %>% 
  summarize(homocide_n = n())
```

    ## # A tibble: 51 x 2
    ##    city_state      homocide_n
    ##    <chr>                <int>
    ##  1 Albuquerque, NM        232
    ##  2 Atlanta, GA            600
    ##  3 Baltimore, MD         1002
    ##  4 Baton Rouge, LA        228
    ##  5 Birmingham, AL         453
    ##  6 Boston, MA             304
    ##  7 Buffalo, NY            202
    ##  8 Charlotte, NC          481
    ##  9 Chicago, IL           1462
    ## 10 Cincinnati, OH         385
    ## # ... with 41 more rows

-   Total number of unsolved homocides by city

``` r
homocide_data %>% 
  filter(disposition %in% c("Closed without arrest", "Open/No arrest")) %>% 
  group_by(city_state) %>% 
  summarize(unsolve_homocide_n = n()) 
```

    ## # A tibble: 50 x 2
    ##    city_state      unsolve_homocide_n
    ##    <chr>                        <int>
    ##  1 Albuquerque, NM                146
    ##  2 Atlanta, GA                    373
    ##  3 Baltimore, MD                 1825
    ##  4 Baton Rouge, LA                196
    ##  5 Birmingham, AL                 347
    ##  6 Boston, MA                     310
    ##  7 Buffalo, NY                    319
    ##  8 Charlotte, NC                  206
    ##  9 Chicago, IL                   4073
    ## 10 Cincinnati, OH                 309
    ## # ... with 40 more rows
…
``` r
city_results =
  city_nest %>% 
  mutate(city_homocide = map(city_nest$data, individual_city)) %>% 
  unnest(city_homocide)
```

    ## Warning in prop.test(x = homocide$homocide_n, n = total_cases$cases_n):
    ## Chi-squared approximation may be incorrect

``` r
city_results
```

    ## # A tibble: 51 x 5
    ##    city_state      data                  estimate upper_ci lower_ci
    ##    <chr>           <list>                   <dbl>    <dbl>    <dbl>
    ##  1 Albuquerque, NM <tibble [378 × 12]>      0.614    0.562    0.663
    ##  2 Atlanta, GA     <tibble [973 × 12]>      0.617    0.585    0.647
    ##  3 Baltimore, MD   <tibble [2,827 × 12]>    0.354    0.337    0.372
    ##  4 Baton Rouge, LA <tibble [424 × 12]>      0.538    0.489    0.586
    ##  5 Birmingham, AL  <tibble [800 × 12]>      0.566    0.531    0.601
    ##  6 Boston, MA      <tibble [614 × 12]>      0.495    0.455    0.535
    ##  7 Buffalo, NY     <tibble [521 × 12]>      0.388    0.346    0.431
    ##  8 Charlotte, NC   <tibble [687 × 12]>      0.700    0.664    0.734
    ##  9 Chicago, IL     <tibble [5,535 × 12]>    0.264    0.253    0.276
    ## 10 Cincinnati, OH  <tibble [694 × 12]>      0.555    0.517    0.592
    ## # ... with 41 more rows
…
